simulation/qsim/projeto2.msim.vcd
$comment
	File created using the following command:
		vcd file projeto2.msim.vcd -direction
$end
$date
	Fri Sep 08 15:31:32 2023
$end
$version
	ModelSim Version 2020.1
$end
$timescale
	1ps
$end

$scope module helloworld_vlg_vec_tst $end
$var reg 1 ! clk $end
$var wire 1 " EN $end
$var wire 1 # RS $end
$var wire 1 $ RW $end
$var wire 1 % data [7] $end
$var wire 1 & data [6] $end
$var wire 1 ' data [5] $end
$var wire 1 ( data [4] $end
$var wire 1 ) data [3] $end
$var wire 1 * data [2] $end
$var wire 1 + data [1] $end
$var wire 1 , data [0] $end

$scope module i1 $end
$var wire 1 - gnd $end
$var wire 1 . vcc $end
$var wire 1 / unknown $end
$var tri1 1 0 devclrn $end
$var tri1 1 1 devpor $end
$var tri1 1 2 devoe $end
$var wire 1 3 data[0]~output_o $end
$var wire 1 4 data[1]~output_o $end
$var wire 1 5 data[2]~output_o $end
$var wire 1 6 data[3]~output_o $end
$var wire 1 7 data[4]~output_o $end
$var wire 1 8 data[5]~output_o $end
$var wire 1 9 data[6]~output_o $end
$var wire 1 : data[7]~output_o $end
$var wire 1 ; RW~output_o $end
$var wire 1 < RS~output_o $end
$var wire 1 = EN~output_o $end
$var wire 1 > clk~input_o $end
$var wire 1 ? counter[0]~32_combout $end
$var wire 1 @ Equal0~0_combout $end
$var wire 1 A counter[8]~49 $end
$var wire 1 B counter[9]~50_combout $end
$var wire 1 C counter[9]~51 $end
$var wire 1 D counter[10]~52_combout $end
$var wire 1 E counter[10]~53 $end
$var wire 1 F counter[11]~54_combout $end
$var wire 1 G counter[11]~55 $end
$var wire 1 H counter[12]~56_combout $end
$var wire 1 I counter[12]~57 $end
$var wire 1 J counter[13]~58_combout $end
$var wire 1 K counter[13]~59 $end
$var wire 1 L counter[14]~60_combout $end
$var wire 1 M counter[14]~61 $end
$var wire 1 N counter[15]~62_combout $end
$var wire 1 O Equal0~1_combout $end
$var wire 1 P Equal0~2_combout $end
$var wire 1 Q state~10_combout $end
$var wire 1 R state.WRITE~q $end
$var wire 1 S state~9_combout $end
$var wire 1 T counter[0]~33 $end
$var wire 1 U counter[1]~34_combout $end
$var wire 1 V counter[1]~35 $end
$var wire 1 W counter[2]~36_combout $end
$var wire 1 X counter[2]~37 $end
$var wire 1 Y counter[3]~38_combout $end
$var wire 1 Z counter[3]~39 $end
$var wire 1 [ counter[4]~40_combout $end
$var wire 1 \ counter[4]~41 $end
$var wire 1 ] counter[5]~42_combout $end
$var wire 1 ^ counter[5]~43 $end
$var wire 1 _ counter[6]~44_combout $end
$var wire 1 ` counter[6]~45 $end
$var wire 1 a counter[7]~46_combout $end
$var wire 1 b counter[7]~47 $end
$var wire 1 c counter[8]~48_combout $end
$var wire 1 d Equal1~0_combout $end
$var wire 1 e Equal1~1_combout $end
$var wire 1 f counter[15]~63 $end
$var wire 1 g counter[16]~64_combout $end
$var wire 1 h counter[16]~65 $end
$var wire 1 i counter[17]~66_combout $end
$var wire 1 j counter[17]~67 $end
$var wire 1 k counter[18]~68_combout $end
$var wire 1 l counter[18]~69 $end
$var wire 1 m counter[19]~70_combout $end
$var wire 1 n Equal1~2_combout $end
$var wire 1 o counter[19]~71 $end
$var wire 1 p counter[20]~72_combout $end
$var wire 1 q counter[20]~73 $end
$var wire 1 r counter[21]~74_combout $end
$var wire 1 s counter[21]~75 $end
$var wire 1 t counter[22]~76_combout $end
$var wire 1 u counter[22]~77 $end
$var wire 1 v counter[23]~78_combout $end
$var wire 1 w Equal1~3_combout $end
$var wire 1 x Equal1~4_combout $end
$var wire 1 y counter[23]~79 $end
$var wire 1 z counter[24]~80_combout $end
$var wire 1 { counter[24]~81 $end
$var wire 1 | counter[25]~82_combout $end
$var wire 1 } counter[25]~83 $end
$var wire 1 ~ counter[26]~84_combout $end
$var wire 1 !! counter[26]~85 $end
$var wire 1 "! counter[27]~86_combout $end
$var wire 1 #! Equal1~5_combout $end
$var wire 1 $! counter[27]~87 $end
$var wire 1 %! counter[28]~88_combout $end
$var wire 1 &! counter[28]~89 $end
$var wire 1 '! counter[29]~90_combout $end
$var wire 1 (! counter[29]~91 $end
$var wire 1 )! counter[30]~92_combout $end
$var wire 1 *! counter[30]~93 $end
$var wire 1 +! counter[31]~94_combout $end
$var wire 1 ,! Equal1~6_combout $end
$var wire 1 -! Equal1~7_combout $end
$var wire 1 .! state~6_combout $end
$var wire 1 /! state~7_combout $end
$var wire 1 0! state~8_combout $end
$var wire 1 1! instructions[1]~10_combout $end
$var wire 1 2! instructions[1]~11 $end
$var wire 1 3! instructions[2]~13_combout $end
$var wire 1 4! instructions[2]~14 $end
$var wire 1 5! instructions[3]~15_combout $end
$var wire 1 6! instructions[3]~16 $end
$var wire 1 7! instructions[4]~17_combout $end
$var wire 1 8! instructions[4]~18 $end
$var wire 1 9! instructions[5]~19_combout $end
$var wire 1 :! instructions[5]~20 $end
$var wire 1 ;! instructions[6]~21_combout $end
$var wire 1 <! instructions[6]~22 $end
$var wire 1 =! instructions[7]~23_combout $end
$var wire 1 >! instructions[0]~8_combout $end
$var wire 1 ?! instructions[0]~12_combout $end
$var wire 1 @! instructions[0]~7_combout $end
$var wire 1 A! instructions[0]~9_combout $end
$var wire 1 B! WideOr0_rtl_0|auto_generated|ram_block1a7~portadataout $end
$var wire 1 C! WideOr0_rtl_0|auto_generated|ram_block1a6~portadataout $end
$var wire 1 D! WideOr0_rtl_0|auto_generated|ram_block1a5~portadataout $end
$var wire 1 E! WideOr0_rtl_0|auto_generated|ram_block1a4~portadataout $end
$var wire 1 F! WideOr0_rtl_0|auto_generated|ram_block1a3~portadataout $end
$var wire 1 G! WideOr0_rtl_0|auto_generated|ram_block1a2~portadataout $end
$var wire 1 H! WideOr0_rtl_0|auto_generated|ram_block1a1~portadataout $end
$var wire 1 I! WideOr0_rtl_0|auto_generated|ram_block1a0~portadataout $end
$var wire 1 J! WideOr0_rtl_0|auto_generated|ram_block1a8~portadataout $end
$var wire 1 K! EN~0_combout $end
$var wire 1 L! EN~reg0_q $end
$var wire 1 M! instructions [7] $end
$var wire 1 N! instructions [6] $end
$var wire 1 O! instructions [5] $end
$var wire 1 P! instructions [4] $end
$var wire 1 Q! instructions [3] $end
$var wire 1 R! instructions [2] $end
$var wire 1 S! instructions [1] $end
$var wire 1 T! instructions [0] $end
$var wire 1 U! counter [31] $end
$var wire 1 V! counter [30] $end
$var wire 1 W! counter [29] $end
$var wire 1 X! counter [28] $end
$var wire 1 Y! counter [27] $end
$var wire 1 Z! counter [26] $end
$var wire 1 [! counter [25] $end
$var wire 1 \! counter [24] $end
$var wire 1 ]! counter [23] $end
$var wire 1 ^! counter [22] $end
$var wire 1 _! counter [21] $end
$var wire 1 `! counter [20] $end
$var wire 1 a! counter [19] $end
$var wire 1 b! counter [18] $end
$var wire 1 c! counter [17] $end
$var wire 1 d! counter [16] $end
$var wire 1 e! counter [15] $end
$var wire 1 f! counter [14] $end
$var wire 1 g! counter [13] $end
$var wire 1 h! counter [12] $end
$var wire 1 i! counter [11] $end
$var wire 1 j! counter [10] $end
$var wire 1 k! counter [9] $end
$var wire 1 l! counter [8] $end
$var wire 1 m! counter [7] $end
$var wire 1 n! counter [6] $end
$var wire 1 o! counter [5] $end
$var wire 1 p! counter [4] $end
$var wire 1 q! counter [3] $end
$var wire 1 r! counter [2] $end
$var wire 1 s! counter [1] $end
$var wire 1 t! counter [0] $end
$var wire 1 u! WideOr0_rtl_0|auto_generated|ram_block1a7_PORTADATAOUT_bus [0] $end
$var wire 1 v! WideOr0_rtl_0|auto_generated|ram_block1a6_PORTADATAOUT_bus [0] $end
$var wire 1 w! WideOr0_rtl_0|auto_generated|ram_block1a5_PORTADATAOUT_bus [0] $end
$var wire 1 x! WideOr0_rtl_0|auto_generated|ram_block1a4_PORTADATAOUT_bus [0] $end
$var wire 1 y! WideOr0_rtl_0|auto_generated|ram_block1a3_PORTADATAOUT_bus [0] $end
$var wire 1 z! WideOr0_rtl_0|auto_generated|ram_block1a2_PORTADATAOUT_bus [0] $end
$var wire 1 {! WideOr0_rtl_0|auto_generated|ram_block1a1_PORTADATAOUT_bus [0] $end
$var wire 1 |! WideOr0_rtl_0|auto_generated|ram_block1a0_PORTADATAOUT_bus [0] $end
$var wire 1 }! WideOr0_rtl_0|auto_generated|ram_block1a8_PORTADATAOUT_bus [0] $end
$upscope $end
$upscope $end
$enddefinitions $end
#0
$dumpvars
0!
1"
0#
0$
0,
0+
0*
0)
0(
0'
0&
0%
0-
1.
x/
10
11
12
03
04
05
06
07
08
09
0:
0;
0<
1=
0>
1?
1@
0A
0B
1C
0D
0E
0F
1G
0H
0I
0J
1K
0L
0M
0N
1O
1P
0Q
0R
0S
0T
0U
1V
0W
0X
0Y
1Z
0[
0\
0]
1^
0_
0`
0a
1b
0c
0d
0e
1f
0g
0h
0i
1j
0k
0l
0m
1n
1o
0p
0q
0r
1s
0t
0u
0v
1w
0x
1y
0z
0{
0|
1}
0~
0!!
0"!
1#!
1$!
0%!
0&!
0'!
1(!
0)!
0*!
0+!
1,!
0-!
0.!
0/!
00!
01!
02!
03!
14!
05!
06!
07!
18!
09!
0:!
0;!
1<!
0=!
1>!
0?!
1@!
0A!
0B!
0C!
0D!
0E!
0F!
0G!
0H!
0I!
0J!
0K!
0L!
0T!
0S!
0R!
0Q!
0P!
0O!
0N!
0M!
0t!
0s!
0r!
0q!
0p!
0o!
0n!
0m!
0l!
0k!
0j!
0i!
0h!
0g!
0f!
0e!
0d!
0c!
0b!
0a!
0`!
0_!
0^!
0]!
0\!
0[!
0Z!
0Y!
0X!
0W!
0V!
0U!
0u!
0v!
0w!
0x!
0y!
0z!
0{!
0|!
0}!
$end
#5000
1!
1>
1t!
1T
0?
1U
#5001
1z!
1y!
1x!
1G!
1F!
1E!
16
17
18
1'
1(
1)
#10000
0!
0>
#15000
1!
1>
1s!
0t!
0V
0T
0U
1?
1V
1W
1U
0W
#20000
0!
0>
#25000
1!
1>
1t!
1T
0?
0V
0U
1W
#30000
0!
0>
#35000
1!
1>
1r!
0s!
0t!
1X
1V
0T
0W
1U
1?
0X
1Y
1W
0U
0Y
#40000
0!
0>
#45000
1!
1>
1t!
1T
0?
1U
#50000
0!
0>
#55000
1!
1>
1s!
0t!
0V
0T
0U
1?
1X
1V
0W
1U
0X
1Y
1W
0Y
#60000
0!
0>
#65000
1!
1>
1t!
1T
0?
0V
0U
1X
0W
1Y
#70000
0!
0>
#75000
1!
1>
1q!
0r!
0s!
0t!
0Z
0X
1V
0T
0Y
1W
1U
1?
1Z
1[
1Y
0W
0U
0[
#80000
0!
0>
#85000
1!
1>
1t!
1T
0?
1U
#90000
0!
0>
#95000
1!
1>
1s!
0t!
0V
0T
0U
1?
1V
1W
1U
0W
#100000
0!
0>
#105000
1!
1>
1t!
1T
0?
0V
0U
1W
#110000
0!
0>
#115000
1!
1>
1r!
0s!
0t!
1X
1V
0T
0W
1U
1?
0Z
0X
0Y
1W
0U
1Z
1[
1Y
0[
#120000
0!
0>
#125000
1!
1>
1t!
1T
0?
1U
#130000
0!
0>
#135000
1!
1>
1s!
0t!
0V
0T
0U
1?
1X
1V
0W
1U
0Z
0X
0Y
1W
1Z
1[
1Y
0[
#140000
0!
0>
#145000
1!
1>
1t!
1T
0?
0V
0U
1X
0W
0Z
0Y
1[
#150000
0!
0>
#155000
1!
1>
1p!
0q!
0r!
0s!
0t!
1\
1Z
0X
1V
0T
0[
1Y
1W
1U
1?
0\
1]
1[
0Y
0W
0U
0]
#160000
0!
0>
#165000
1!
1>
1t!
1T
0?
1U
#170000
0!
0>
#175000
1!
1>
1s!
0t!
0V
0T
0U
1?
1V
1W
1U
0W
#180000
0!
0>
#185000
1!
1>
1t!
1T
0?
0V
0U
1W
#190000
0!
0>
#195000
1!
1>
1r!
0s!
0t!
1X
1V
0T
0W
1U
1?
0X
1Y
1W
0U
0Y
#200000
0!
0>
#205000
1!
1>
1t!
1T
0?
1U
#210000
0!
0>
#215000
1!
1>
1s!
0t!
0V
0T
0U
1?
1X
1V
0W
1U
0X
1Y
1W
0Y
#220000
0!
0>
#225000
1!
1>
1t!
1T
0?
0V
0U
1X
0W
1Y
#230000
0!
0>
#235000
1!
1>
1q!
0r!
0s!
0t!
0Z
0X
1V
0T
0Y
1W
1U
1?
1\
1Z
0[
1Y
0W
0U
0\
1]
1[
0]
#240000
0!
0>
#245000
1!
1>
1t!
1T
0?
1U
#250000
0!
0>
#255000
1!
1>
1s!
0t!
0V
0T
0U
1?
1V
1W
1U
0W
#260000
0!
0>
#265000
1!
1>
1t!
1T
0?
0V
0U
1W
#270000
0!
0>
#275000
1!
1>
1r!
0s!
0t!
1X
1V
0T
0W
1U
1?
0Z
0X
0Y
1W
0U
1\
1Z
0[
1Y
0\
1]
1[
0]
#280000
0!
0>
#285000
1!
1>
1t!
1T
0?
1U
#290000
0!
0>
#295000
1!
1>
1s!
0t!
0V
0T
0U
1?
1X
1V
0W
1U
0Z
0X
0Y
1W
1\
1Z
0[
1Y
0\
1]
1[
0]
#300000
0!
0>
#305000
1!
1>
1t!
1T
0?
0V
0U
1X
0W
0Z
0Y
1\
0[
1]
#310000
0!
0>
#315000
1!
1>
1o!
0p!
0q!
0r!
0s!
0t!
0^
0\
1Z
0X
1V
0T
0]
1[
1Y
1W
1U
1?
1^
1_
1]
0[
0Y
0W
0U
0_
#320000
0!
0>
#325000
1!
1>
1t!
1T
0?
1U
#330000
0!
0>
#335000
1!
1>
1s!
0t!
0V
0T
0U
1?
1V
1W
1U
0W
#340000
0!
0>
#345000
1!
1>
1t!
1T
0?
0V
0U
1W
#350000
0!
0>
#355000
1!
1>
1r!
0s!
0t!
1X
1V
0T
0W
1U
1?
0X
1Y
1W
0U
0Y
#360000
0!
0>
#365000
1!
1>
1t!
1T
0?
1U
#370000
0!
0>
#375000
1!
1>
1s!
0t!
0V
0T
0U
1?
1X
1V
0W
1U
0X
1Y
1W
0Y
#380000
0!
0>
#385000
1!
1>
1t!
1T
0?
0V
0U
1X
0W
1Y
#390000
0!
0>
#395000
1!
1>
1q!
0r!
0s!
0t!
1.!
0Z
0X
1V
0T
0Y
1W
1U
1?
1Z
1[
1Y
0W
0U
0[
#400000
0!
0>
#405000
1!
1>
1t!
1T
0?
1U
#410000
0!
0>
#415000
1!
1>
1s!
0t!
0V
0T
0U
1?
1V
1W
1U
0W
#420000
0!
0>
#425000
1!
1>
1t!
1T
0?
0V
0U
1W
#430000
0!
0>
#435000
1!
1>
1r!
0s!
0t!
1X
1V
0T
0W
1U
1?
0Z
0X
0Y
1W
0U
1Z
1[
1Y
0[
#440000
0!
0>
#445000
1!
1>
1t!
1T
0?
1U
#450000
0!
0>
#455000
1!
1>
1s!
0t!
0V
0T
0U
1?
1X
1V
0W
1U
0Z
0X
0Y
1W
1Z
1[
1Y
0[
#460000
0!
0>
#465000
1!
1>
1t!
1T
0?
0V
0U
1X
0W
0Z
0Y
1[
#470000
0!
0>
#475000
1!
1>
1p!
0q!
0r!
0s!
0t!
0.!
1\
1Z
0X
1V
0T
0[
1Y
1W
1U
1?
0^
0\
0]
1[
0Y
0W
0U
1^
1_
1]
0_
#480000
0!
0>
#485000
1!
1>
1t!
1T
0?
1U
#490000
0!
0>
#495000
1!
1>
1s!
0t!
0V
0T
0U
1?
1V
1W
1U
0W
#500000
0!
0>
#505000
1!
1>
1t!
1T
0?
0V
0U
1W
#510000
0!
0>
#515000
1!
1>
1r!
0s!
0t!
1X
1V
0T
0W
1U
1?
0X
1Y
1W
0U
0Y
#520000
0!
0>
#525000
1!
1>
1t!
1T
0?
1U
#530000
0!
0>
#535000
1!
1>
1s!
0t!
0V
0T
0U
1?
1X
1V
0W
1U
0X
1Y
1W
0Y
#540000
0!
0>
#545000
1!
1>
1t!
1T
0?
0V
0U
1X
0W
1Y
#550000
0!
0>
#555000
1!
1>
1q!
0r!
0s!
0t!
0Z
0X
1V
0T
0Y
1W
1U
1?
1\
1Z
0[
1Y
0W
0U
0^
0\
0]
1[
1^
1_
1]
0_
#560000
0!
0>
#565000
1!
1>
1t!
1T
0?
1U
#570000
0!
0>
#575000
1!
1>
1s!
0t!
0V
0T
0U
1?
1V
1W
1U
0W
#580000
0!
0>
#585000
1!
1>
1t!
1T
0?
0V
0U
1W
#590000
0!
0>
#595000
1!
1>
1r!
0s!
0t!
1X
1V
0T
0W
1U
1?
0Z
0X
0Y
1W
0U
1\
1Z
0[
1Y
0^
0\
0]
1[
1^
1_
1]
0_
#600000
0!
0>
#605000
1!
1>
1t!
1T
0?
1U
#610000
0!
0>
#615000
1!
1>
1s!
0t!
0V
0T
0U
1?
1X
1V
0W
1U
0Z
0X
0Y
1W
1\
1Z
0[
1Y
0^
0\
0]
1[
1^
1_
1]
0_
#620000
0!
0>
#625000
1!
1>
1t!
1T
0?
0V
0U
1X
0W
0Z
0Y
1\
0[
0^
0]
1_
#630000
0!
0>
#635000
1!
1>
1n!
0o!
0p!
0q!
0r!
0s!
0t!
1`
1^
0\
1Z
0X
1V
0T
0_
1]
1[
1Y
1W
1U
1?
0`
1a
1_
0]
0[
0Y
0W
0U
0a
#640000
0!
0>
#645000
1!
1>
1t!
1T
0?
1U
#650000
0!
0>
#655000
1!
1>
1s!
0t!
0V
0T
0U
1?
1V
1W
1U
0W
#660000
0!
0>
#665000
1!
1>
1t!
1T
0?
0V
0U
1W
#670000
0!
0>
#675000
1!
1>
1r!
0s!
0t!
1X
1V
0T
0W
1U
1?
0X
1Y
1W
0U
0Y
#680000
0!
0>
#685000
1!
1>
1t!
1T
0?
1U
#690000
0!
0>
#695000
1!
1>
1s!
0t!
0V
0T
0U
1?
1X
1V
0W
1U
0X
1Y
1W
0Y
#700000
0!
0>
#705000
1!
1>
1t!
1T
0?
0V
0U
1X
0W
1Y
#710000
0!
0>
#715000
1!
1>
1q!
0r!
0s!
0t!
0Z
0X
1V
0T
0Y
1W
1U
1?
1Z
1[
1Y
0W
0U
0[
#720000
0!
0>
#725000
1!
1>
1t!
1T
0?
1U
#730000
0!
0>
#735000
1!
1>
1s!
0t!
0V
0T
0U
1?
1V
1W
1U
0W
#740000
0!
0>
#745000
1!
1>
1t!
1T
0?
0V
0U
1W
#750000
0!
0>
#755000
1!
1>
1r!
0s!
0t!
1X
1V
0T
0W
1U
1?
0Z
0X
0Y
1W
0U
1Z
1[
1Y
0[
#760000
0!
0>
#765000
1!
1>
1t!
1T
0?
1U
#770000
0!
0>
#775000
1!
1>
1s!
0t!
0V
0T
0U
1?
1X
1V
0W
1U
0Z
0X
0Y
1W
1Z
1[
1Y
0[
#780000
0!
0>
#785000
1!
1>
1t!
1T
0?
0V
0U
1X
0W
0Z
0Y
1[
#790000
0!
0>
#795000
1!
1>
1p!
0q!
0r!
0s!
0t!
1\
0@
1Z
0X
1V
0T
0[
1Y
1W
1U
1?
0\
1]
1[
0Y
0W
0U
0]
#800000
0!
0>
#805000
1!
1>
1t!
1T
0?
1U
#810000
0!
0>
#815000
1!
1>
1s!
0t!
0V
0T
0U
1?
1V
1W
1U
0W
#820000
0!
0>
#825000
1!
1>
1t!
1T
0?
0V
0U
1W
#830000
0!
0>
#835000
1!
1>
1r!
0s!
0t!
1X
1V
0T
0W
1U
1?
0X
1Y
1W
0U
0Y
#840000
0!
0>
#845000
1!
1>
1t!
1T
0?
1U
#850000
0!
0>
#855000
1!
1>
1s!
0t!
0V
0T
0U
1?
1X
1V
0W
1U
0X
1Y
1W
0Y
#860000
0!
0>
#865000
1!
1>
1t!
1T
0?
0V
0U
1X
0W
1Y
#870000
0!
0>
#875000
1!
1>
1q!
0r!
0s!
0t!
0Z
1@
0X
1V
0T
0Y
1W
1U
1?
1\
1Z
0[
1Y
0W
0U
0\
1]
1[
0]
#880000
0!
0>
#885000
1!
1>
1t!
1T
0?
1U
#890000
0!
0>
#895000
1!
1>
1s!
0t!
0V
0T
0U
1?
1V
1W
1U
0W
#900000
0!
0>
#905000
1!
1>
1t!
1T
0?
0V
0U
1W
#910000
0!
0>
#915000
1!
1>
1r!
0s!
0t!
1X
1V
0T
0W
1U
1?
0Z
0X
0Y
1W
0U
1\
1Z
0[
1Y
0\
1]
1[
0]
#920000
0!
0>
#925000
1!
1>
1t!
1T
0?
1U
#930000
0!
0>
#935000
1!
1>
1s!
0t!
0V
0T
0U
1?
1X
1V
0W
1U
0Z
0X
0Y
1W
1\
1Z
0[
1Y
0\
1]
1[
0]
#940000
0!
0>
#945000
1!
1>
1t!
1T
0?
0V
0U
1X
0W
0Z
0Y
1\
0[
1]
#950000
0!
0>
#955000
1!
1>
1o!
0p!
0q!
0r!
0s!
0t!
0^
0\
1Z
0X
1V
0T
0]
1[
1Y
1W
1U
1?
1`
1^
0_
1]
0[
0Y
0W
0U
0`
1a
1_
0a
#960000
0!
0>
#965000
1!
1>
1t!
1T
0?
1U
#970000
0!
0>
#975000
1!
1>
1s!
0t!
0V
0T
0U
1?
1V
1W
1U
0W
#980000
0!
0>
#985000
1!
1>
1t!
1T
0?
0V
0U
1W
#990000
0!
0>
#995000
1!
1>
1r!
0s!
0t!
1X
1V
0T
0W
1U
1?
0X
1Y
1W
0U
0Y
